^D:\REPOZYTORIA\SDIZO PROJEKT 1\PROJEKT\X64\DEBUG\MAIN.OBJ|D:\REPOZYTORIA\SDIZO PROJEKT 1\PROJEKT\X64\DEBUG\TABLICA.OBJ
D:\WINDOWS KITS\10\LIB\10.0.17763.0\UM\X64\KERNEL32.LIB
D:\WINDOWS KITS\10\LIB\10.0.17763.0\UM\X64\USER32.LIB
D:\WINDOWS KITS\10\LIB\10.0.17763.0\UM\X64\GDI32.LIB
D:\WINDOWS KITS\10\LIB\10.0.17763.0\UM\X64\WINSPOOL.LIB
D:\WINDOWS KITS\10\LIB\10.0.17763.0\UM\X64\COMDLG32.LIB
D:\WINDOWS KITS\10\LIB\10.0.17763.0\UM\X64\ADVAPI32.LIB
D:\WINDOWS KITS\10\LIB\10.0.17763.0\UM\X64\SHELL32.LIB
D:\WINDOWS KITS\10\LIB\10.0.17763.0\UM\X64\OLE32.LIB
D:\WINDOWS KITS\10\LIB\10.0.17763.0\UM\X64\OLEAUT32.LIB
D:\WINDOWS KITS\10\LIB\10.0.17763.0\UM\X64\UUID.LIB
D:\WINDOWS KITS\10\LIB\10.0.17763.0\UM\X64\ODBC32.LIB
D:\WINDOWS KITS\10\LIB\10.0.17763.0\UM\X64\ODBCCP32.LIB
D:\REPOZYTORIA\SDIZO PROJEKT 1\PROJEKT\X64\DEBUG\TABLICA.OBJ
D:\REPOZYTORIA\SDIZO PROJEKT 1\PROJEKT\X64\DEBUG\MAIN.OBJ
C:\WINDOWS\SYSTEM32\TZRES.DLL
C:\WINDOWS\GLOBALIZATION\SORTING\SORTDEFAULT.NLS
E:\INSTALKI\VISUAL STUDIO ENTERPRISE 2019\VC\TOOLS\MSVC\14.21.27702\LIB\X64\MSVCPRTD.LIB
E:\INSTALKI\VISUAL STUDIO ENTERPRISE 2019\VC\TOOLS\MSVC\14.21.27702\LIB\X64\MSVCRTD.LIB
E:\INSTALKI\VISUAL STUDIO ENTERPRISE 2019\VC\TOOLS\MSVC\14.21.27702\LIB\X64\OLDNAMES.LIB
E:\INSTALKI\VISUAL STUDIO ENTERPRISE 2019\VC\TOOLS\MSVC\14.21.27702\LIB\X64\VCRUNTIMED.LIB
D:\WINDOWS KITS\10\LIB\10.0.17763.0\UCRT\X64\UCRTD.LIB
